simulation/qsim/ULA_JUAN_THALES.msim.vcd
$comment
	File created using the following command:
		vcd file ULA_JUAN_THALES.msim.vcd -direction
$end
$date
	Thu Mar 23 15:11:27 2017
$end
$version
	ModelSim Version 10.1d
$end
$timescale
	1ps
$end
$scope module ULA_JUAN_THALES_vlg_vec_tst $end
$var reg 4 ! a [3:0] $end
$var reg 4 " b [3:0] $end
$var reg 4 # f [3:0] $end
$var wire 1 $ n $end
$var wire 1 % s [13] $end
$var wire 1 & s [12] $end
$var wire 1 ' s [11] $end
$var wire 1 ( s [10] $end
$var wire 1 ) s [9] $end
$var wire 1 * s [8] $end
$var wire 1 + s [7] $end
$var wire 1 , s [6] $end
$var wire 1 - s [5] $end
$var wire 1 . s [4] $end
$var wire 1 / s [3] $end
$var wire 1 0 s [2] $end
$var wire 1 1 s [1] $end
$var wire 1 2 s [0] $end
$var wire 1 3 saida [3] $end
$var wire 1 4 saida [2] $end
$var wire 1 5 saida [1] $end
$var wire 1 6 saida [0] $end
$var wire 1 7 v $end
$var wire 1 8 z $end
$var wire 1 9 sampler $end
$scope module i1 $end
$var wire 1 : gnd $end
$var wire 1 ; vcc $end
$var wire 1 < unknown $end
$var tri1 1 = devclrn $end
$var tri1 1 > devpor $end
$var tri1 1 ? devoe $end
$var wire 1 @ mux0|Mux0~5_combout $end
$var wire 1 A mux1|Mux0~0_combout $end
$var wire 1 B codificador|Mux0~0_combout $end
$var wire 1 C mux3|Mux0~5_combout $end
$var wire 1 D mux3|Mux0~6_combout $end
$var wire 1 E mux1|Mux0~4_combout $end
$var wire 1 F bx2_somasub_b|soma2|c_out~0_combout $end
$var wire 1 G bx2_somasub_b|soma3|s~combout $end
$var wire 1 H mux3|Mux0~8_combout $end
$var wire 1 I mux3|Mux0~9_combout $end
$var wire 1 J ax2_mais_b|soma3|s~0_combout $end
$var wire 1 K mux3|Mux0~10_combout $end
$var wire 1 L mux2|Mux0~0_combout $end
$var wire 1 M nega_b|soma3|s~0_combout $end
$var wire 1 N mux2|Mux0~1_combout $end
$var wire 1 O a_mais_menos_b|soma4|s~combout $end
$var wire 1 P mux3|Mux0~11_combout $end
$var wire 1 Q mux3|Mux0~15_combout $end
$var wire 1 R mux3|Mux0~16_combout $end
$var wire 1 S mux3|Mux0~17_combout $end
$var wire 1 T nega_b|soma4|s~0_combout $end
$var wire 1 U mux3|Mux0~19_combout $end
$var wire 1 V over_flow|Mux0~2_combout $end
$var wire 1 W over_flow|Mux0~5_combout $end
$var wire 1 X over_flow|Mux0~6_combout $end
$var wire 1 Y mux3|Mux0~22_combout $end
$var wire 1 Z mux0|Mux0~2_combout $end
$var wire 1 [ mux0|Mux0~3_combout $end
$var wire 1 \ mux0|Mux0~6_combout $end
$var wire 1 ] mux0|Mux0~7_combout $end
$var wire 1 ^ mux0|Mux0~4_combout $end
$var wire 1 _ mux0|Mux0~8_combout $end
$var wire 1 ` comb~0_combout $end
$var wire 1 a codificador|Mux0~1_combout $end
$var wire 1 b a_mais_menos_b|soma1|c_out~0_combout $end
$var wire 1 c a_mais_menos_b|soma1|c_out~1_combout $end
$var wire 1 d a_mais_menos_b|soma2|c_out~0_combout $end
$var wire 1 e a_mais_menos_b|soma3|s~combout $end
$var wire 1 f mux2|Mux0~4_combout $end
$var wire 1 g mux2|Mux0~2_combout $end
$var wire 1 h mux2|Mux0~3_combout $end
$var wire 1 i mux2|Mux0~5_combout $end
$var wire 1 j codificador|Mux2~0_combout $end
$var wire 1 k bx2_somasub_b|soma2|c_out~1_combout $end
$var wire 1 l bx2_somasub_b|soma3|c_out~0_combout $end
$var wire 1 m bx2_somasub_b|soma4|s~combout $end
$var wire 1 n mux3|Mux0~13_combout $end
$var wire 1 o mux3|Mux0~14_combout $end
$var wire 1 p mux3|Mux0~18_combout $end
$var wire 1 q mux3|Mux0~20_combout $end
$var wire 1 r mux3|Mux0~12_combout $end
$var wire 1 s mux3|Mux0~23_combout $end
$var wire 1 t mux3|Mux0~21_combout $end
$var wire 1 u mux3|Mux0~4_combout $end
$var wire 1 v codificador|Mux1~0_combout $end
$var wire 1 w mux3|Mux0~7_combout $end
$var wire 1 x mux1|Mux0~5_combout $end
$var wire 1 y a_mais_menos_b|soma2|s~combout $end
$var wire 1 z mux1|Mux0~2_combout $end
$var wire 1 { mux1|Mux0~1_combout $end
$var wire 1 | mux1|Mux0~3_combout $end
$var wire 1 } mux1|Mux0~6_combout $end
$var wire 1 ~ dois7segmentos|Mux6~0_combout $end
$var wire 1 !! dois7segmentos|Mux5~0_combout $end
$var wire 1 "! dois7segmentos|Mux4~0_combout $end
$var wire 1 #! dois7segmentos|Mux3~0_combout $end
$var wire 1 $! dois7segmentos|Mux2~0_combout $end
$var wire 1 %! dois7segmentos|Mux1~0_combout $end
$var wire 1 &! dois7segmentos|Mux0~0_combout $end
$var wire 1 '! bx2_somasub_b|soma4|c_out~0_combout $end
$var wire 1 (! over_flow|Mux0~1_combout $end
$var wire 1 )! a_mais_menos_b|soma3|c_out~0_combout $end
$var wire 1 *! a_mais_menos_b|soma4|c_out~0_combout $end
$var wire 1 +! over_flow|Mux0~0_combout $end
$var wire 1 ,! over_flow|Mux0~3_combout $end
$var wire 1 -! ax2_mais_b|soma3|c_out~0_combout $end
$var wire 1 .! fio_of[1]~0_combout $end
$var wire 1 /! over_flow|Mux0~4_combout $end
$var wire 1 0! over_flow|Mux0~7_combout $end
$var wire 1 1! over_flow|Mux0~8_combout $end
$var wire 1 2! z~0_combout $end
$var wire 1 3! bx2_somasub_b|sub [3] $end
$var wire 1 4! bx2_somasub_b|sub [2] $end
$var wire 1 5! bx2_somasub_b|sub [1] $end
$var wire 1 6! bx2_somasub_b|sub [0] $end
$var wire 1 7! b~combout [3] $end
$var wire 1 8! b~combout [2] $end
$var wire 1 9! b~combout [1] $end
$var wire 1 :! b~combout [0] $end
$var wire 1 ;! a_mais_menos_b|sub [3] $end
$var wire 1 <! a_mais_menos_b|sub [2] $end
$var wire 1 =! a_mais_menos_b|sub [1] $end
$var wire 1 >! a_mais_menos_b|sub [0] $end
$var wire 1 ?! a~combout [3] $end
$var wire 1 @! a~combout [2] $end
$var wire 1 A! a~combout [1] $end
$var wire 1 B! a~combout [0] $end
$var wire 1 C! f~combout [3] $end
$var wire 1 D! f~combout [2] $end
$var wire 1 E! f~combout [1] $end
$var wire 1 F! f~combout [0] $end
$upscope $end
$upscope $end
$enddefinitions $end
#0
$dumpvars
b101 !
b10 "
b0 #
x$
x2
x1
x0
x/
x.
x-
x,
1+
1*
1)
1(
1'
1&
x%
x6
x5
x4
x3
x7
x8
x9
0:
1;
x<
1=
1>
1?
x@
xA
xB
xC
xD
xE
xF
xG
xH
xI
xJ
xK
xL
xM
xN
xO
xP
xQ
xR
xS
xT
xU
xV
xW
xX
xY
xZ
x[
x\
x]
x^
x_
x`
xa
xb
xc
xd
xe
xf
xg
xh
xi
xj
xk
xl
xm
xn
xo
xp
xq
xr
xs
xt
xu
xv
xw
xx
xy
xz
x{
x|
x}
x~
x!!
x"!
x#!
x$!
x%!
x&!
x'!
x(!
x)!
x*!
x+!
x,!
x-!
x.!
x/!
x0!
x1!
x2!
z6!
z5!
x4!
z3!
0:!
19!
08!
07!
z>!
x=!
z<!
z;!
1B!
0A!
1@!
0?!
0F!
0E!
0D!
0C!
$end
#2350
0|
#2522
0a
#2586
0+!
#2934
0c
#2935
1=!
#2936
0b
#3012
1I
#3045
0o
#3046
0r
#3078
0v
#3079
1\
#3081
0Z
#3128
0,!
#3167
0j
#3185
0^
#3220
0B
#3225
0[
#3381
0V
#3383
1w
#3389
1u
#3531
0C
#3536
0A
#3574
0F
#3577
14!
#3718
0s
#4004
1T
#4005
1M
#4036
0k
#4237
0{
#4353
0f
#4712
0Y
#5072
0G
1H
1l
#5393
0U
#5462
0'!
#5477
1`
1.!
#5486
0d
#5490
1y
#5511
1@
#5513
0Q
#5515
0n
#5526
0g
#5539
0-!
#5542
1J
1z
#5558
0*!
#5700
0P
#5871
1/!
#5921
0h
#6041
0R
#6115
1e
#6118
0)!
#6184
1m
#6216
1]
#6361
1D
#6456
1(!
#6534
0O
#6535
0S
#6727
0W
#6743
1_
#7242
0p
#7256
1E
#7315
1K
#7430
0X
#7635
0q
#7960
1x
#7984
1L
#8132
00!
#8309
0t
#8525
01!
#8654
1N
#9355
1i
#10517
0"!
#10550
12!
#10551
1$!
#11595
1}
#12071
0&!
1%!
#12083
1#!
0!!
#13503
0~
#13620
1.
#13812
00
#13839
08
#13870
16
#14116
14
#14185
07
#14850
03
#15128
1-
#15129
1,
#15150
1/
#15350
15
#15358
0$
#15369
01
#15411
1%
#16821
02
#40000
b1 #
09
#40974
1F!
#43986
0H
0I
#43990
1Y
#44017
1R
1n
#44019
1o
#44103
1X
#44159
1^
#44246
10!
#44249
1g
#44357
0w
#44363
0u
#44366
0D
#44545
1S
#44566
0_
#44639
11!
#45252
1p
#45261
0E
#45645
1q
#45965
0x
#46319
1t
#48371
1&!
#48372
0%!
#48374
0$!
#48379
1!!
#48382
0#!
#49600
0}
#50079
1$!
#50086
1~
#50088
1#!
0!!
#50299
17
#51429
0,
0-
#51693
06
#52860
13
#53355
05
#53368
1$
#53404
12
#53421
0%
#80000
b11 #
b10 #
19
#80974
1E!
0F!
#83986
1H
1I
#83990
0Y
#83994
0L
#84017
0R
0n
#84019
0o
#84053
0^
#84055
1Z
#84103
0X
#84157
0\
#84192
0/!
#84194
1B
#84249
0g
#84357
1w
#84363
1u
#84366
1D
#84460
1_
#84545
0S
#84588
00!
#84602
0@
0]
#84664
0N
#84689
0p
#84700
1L
#84981
01!
#85082
0q
#85129
0_
#85327
1f
#85365
0i
#85370
1N
#85756
0t
#86071
1i
#90641
07
#92297
03
#92805
0$
#92858
1%
#120000
b11 #
09
#120974
1F!
#123986
0H
0I
#123990
1Y
#124017
1R
1n
#124019
1o
#124103
1X
#124157
1\
#124249
1g
#124287
1j
#124357
0w
#124363
0u
#124366
0D
#124545
1S
#124689
1p
#124694
1F
#124697
04!
#124700
0L
#124805
10!
#124825
1]
#125082
1q
#125198
11!
#125235
1'!
#125236
0m
#125352
1_
#125370
0N
#125756
1t
#125769
0(!
#125912
1W
#126071
0i
#126096
0o
#126100
0n
#126615
0X
#126766
0p
#127159
0q
#127317
00!
#127710
01!
#127833
0t
#128752
0&!
#129158
1%!
#130832
04
#131810
1,
#132215
1-
#132479
16
#160000
b111 #
b101 #
b100 #
19
#160974
1D!
0E!
0F!
#163986
1H
1I
#163990
0Y
#164017
0R
#164050
0W
#164055
0Z
#164103
1X
#164141
0j
#164192
1/!
#164194
0B
#164217
1h
#164355
1V
#164357
1w
#164363
1u
#164366
1D
#164509
1N
#164545
0S
#164548
0F
#164551
14!
#164598
1[
#164602
0]
#164753
0X
#164805
10!
#164997
1]
#165028
1x
#165089
0'!
#165090
1m
#165129
0_
#165210
1i
#165327
0f
#165455
00!
#165524
1_
#165623
1(!
#167878
0~
#167882
0#!
#167885
1!!
#167890
0%!
#167891
1&!
#168663
1}
#169139
0&!
1%!
#169151
1#!
0!!
#169971
14
#171196
02
#172418
15
#200000
b101 #
09
#200974
1F!
#203986
0H
0I
#203990
1Y
#204017
1R
1n
#204019
1o
#204102
1,!
#204103
1X
#204159
1^
#204217
0h
#204246
10!
#204357
0w
#204363
0u
#204366
0D
#204509
0N
#204510
1A
#204545
1S
#204684
1q
#204770
11!
#205028
0x
#205210
0i
#205211
1{
#205358
1t
#207882
0#!
#207891
1&!
#208663
0}
#209139
0&!
#209149
1~
#209151
1#!
#209971
04
#210430
17
#210552
0~
#211899
13
#212407
1$
#212418
05
#212460
0%
#240000
b111 #
b110 #
19
#240974
1E!
0F!
#243986
1H
1I
#243990
0Y
#243994
1L
#244017
0R
0n
#244019
0o
#244055
1Z
1E
0{
#244102
0,!
#244103
0X
#244128
1p
#244135
0V
#244157
0\
#244158
1v
#244159
0^
#244192
0/!
#244357
1w
#244363
1u
#244366
1D
#244510
0A
#244545
0S
#244588
00!
#244598
0[
#244602
1@
#244684
0q
#244753
1x
#244770
01!
#244825
0]
#245084
0T
#245085
0M
#245352
0_
#245358
0t
#245612
1U
#245792
1Y
#246492
1N
#247053
1q
#247193
1i
#247727
1t
#248388
1}
#248864
1&!
0%!
#248876
0#!
1!!
#249160
0$!
#249836
1"!
#249868
0!!
#249873
1%!
#250430
07
#251922
0,
#251943
0/
#251954
14
#252143
15
#252229
0.
#252479
06
#253131
10
#280000
b111 #
09
#280974
1F!
#283986
0H
0I
#284017
1R
1n
#284019
1o
#284103
1X
#284157
1\
#284158
0v
#284159
1^
#284357
0w
#284363
0u
#284366
0D
#284508
0U
#284510
1A
#284545
1S
#284753
0x
#284805
10!
#285084
1T
#285085
1M
#285949
0q
#286623
0t
#288388
0}
#288864
0%!
#288867
1$!
#288874
1~
#288875
0"!
#288876
1#!
#291921
0-
#291936
1.
#291943
1/
#292143
05
#292170
00
#292192
12
#293164
03
#293672
0$
#293725
1%
#320000
b1111 #
b1011 #
b1001 #
b1000 #
19
#320974
1C!
0D!
0E!
0F!
#323317
0i
#323986
1H
1I
#323990
0Y
#324017
0R
0n
#324019
0o
#324055
1{
#324103
0X
#324109
0A
#324111
0E
#324113
1x
#324136
1q
#324192
1/!
#324217
1h
#324356
0g
#324357
1w
#324363
1u
#324366
1D
#324448
1|
#324492
0@
#324498
0^
#324545
0S
#324751
0h
#324805
00!
#324810
0{
#324815
0x
#325197
1]
#325203
0|
#325252
0p
#325261
1E
#325645
0q
#325724
1_
#325965
1x
#325985
0~
#325989
0#!
#325997
02!
0$!
#325998
0&!
#328078
04
#329056
1,
0/
#329066
0.
#329286
18
#329303
02
#329530
1%!
#329531
12!
#329532
1$!
#329537
1~
#329540
1#!
#332587
1-
#332601
1.
#332607
1/
#332820
08
#332851
16
#332855
12
#360000
b1001 #
09
#360974
1F!
#363986
0H
0I
#363990
1Y
#364017
1R
1n
#364019
1o
#364103
1X
#364159
1^
#364246
10!
#364249
1g
#364357
0w
#364363
0u
#364366
0D
#364545
1S
#364566
0_
#365252
1p
#365261
0E
#365645
1q
#365965
0x
#368372
0%!
#368373
02!
#368374
0$!
#368379
0~
#368382
0#!
#371429
0-
#371443
0.
#371449
0/
#371662
18
#371693
06
#371697
02
#400000
b1011 #
b1010 #
19
#400974
1E!
0F!
#403986
1H
1I
#403990
0Y
#403994
0L
#404017
0R
0n
#404019
0o
#404053
0^
#404055
0Z
#404103
0X
#404157
0\
#404192
0/!
#404194
1B
#404249
0g
#404357
1w
#404363
1u
#404366
1D
#404460
1_
#404545
0S
#404588
00!
#404602
1@
0]
#404664
0N
#404689
0p
#404700
1L
#405082
0q
#405129
0_
#405307
1]
#405310
1|
#405327
1f
#405370
1N
#405834
1_
#406003
1i
#408175
1}
#408663
1!!
#408683
12!
#408684
1&!
#409639
0&!
#409640
1%!
#409642
1$!
#409647
0!!
#409650
1#!
#410764
14
#411930
15
#411972
08
#412697
1-
#412711
1.
#412717
1/
#412961
16
#440000
b1011 #
09
#440974
1F!
#443986
0H
0I
#443990
1Y
#444017
1R
1n
#444019
1o
#444103
1X
#444157
1\
#444159
1a
#444249
1g
#444357
0w
#444363
0u
#444366
0D
#444545
1S
#444571
1c
#444572
0=!
#444573
1b
#444689
1p
#444700
0L
#444805
10!
#445082
1q
#445139
0e
#445143
1)!
#445281
1O
#445370
0N
#445559
0O
#445561
1*!
#446342
0f
#447018
0i
#449690
0#!
#449699
1&!
#451779
04
#452757
0,
0/
#480000
b1111 #
b1101 #
b1100 #
19
#480974
1D!
0E!
0F!
#483984
1f
#483986
1H
1I
#483989
0K
#483990
0Y
#484017
0R
0n
#484019
0o
#484050
1W
#484052
0a
#484055
1Z
#484128
0p
#484136
0q
#484192
1/!
#484194
0B
#484199
1[
#484217
1h
#484357
1w
#484363
1u
#484366
1D
#484464
0c
#484465
1=!
#484466
0b
#484497
0Z
#484498
1^
#484509
1N
#484545
0S
#484598
0[
#484660
1i
#484753
0X
#484905
0_
#485028
1x
#485032
1e
#485036
0)!
#485040
1[
#485044
0@
#485172
0*!
#485173
1S
#485174
1O
#485310
0|
#485327
0f
#485452
0O
#485453
0S
#485455
00!
#485645
0W
#485748
1_
#485781
1X
#486232
1K
#486348
0X
#486483
10!
#487050
00!
#487332
1#!
#487341
0&!
#488175
0}
#488651
1&!
0%!
#488663
0#!
1!!
#489421
14
#491708
0-
#491930
05
#491949
11
#520000
b1101 #
09
#520974
1F!
#523986
0H
0I
#523990
1Y
#524017
1R
1n
#524019
1o
#524103
1X
#524159
0^
#524160
1Z
#524217
0h
#524246
10!
#524357
0w
#524363
0u
#524366
0D
#524509
0N
#524510
1A
#524545
1S
#524684
1q
#524703
0[
#524707
1@
#525028
0x
#525211
1{
#525338
0i
#525412
0]
#525604
1|
#525939
0_
#528006
1~
#528010
1#!
#528013
0!!
#528018
1%!
#528019
0&!
#528469
1}
#528945
1&!
#528955
0~
#528957
0#!
#529713
1"!
#529747
0$!
#530099
04
#531075
1-
#531299
01
#532224
15
#532816
0.
#533008
10
#533066
06
#560000
b1111 #
b1110 #
19
#560974
1E!
0F!
#563986
1H
1I
#563990
0Y
#563994
1L
#564017
0R
0n
#564019
0o
#564053
1^
#564055
1E
0{
#564103
0X
#564128
1p
#564157
0\
#564192
0/!
#564357
1w
#564363
1u
#564366
1D
#564448
0|
#564510
0A
#564545
0S
#564588
00!
#564684
0q
#564753
1x
#567313
0}
#567789
0&!
0%!
#567791
02!
#567800
0"!
#570846
0-
#570847
1,
#571068
05
#571080
18
#571095
00
#600000
b1111 #
09
#600974
1F!
#603986
0H
0I
#603990
1Y
#604017
1R
1n
#604019
1o
#604103
1X
#604157
1\
#604357
0w
#604363
0u
#604366
0D
#604510
1A
#604545
1S
#604690
1N
#604753
0x
#604805
10!
#640000
b1 !
b0 !
b0 "
b111 #
b11 #
b1 #
b0 #
19
#640812
0B!
#640822
0@!
#640974
09!
0C!
0D!
0E!
0F!
#642070
04!
#642305
0=!
#642400
1D
#642402
0J
#642746
0l
#642748
1G
#642987
0y
#643229
0K
#643317
1i
#643463
1I
#643464
1H
#643856
0z
#643858
0m
#643986
0I
#643989
1K
#643990
0Y
#643994
0L
#644017
0R
0n
#644019
0o
#644053
0\
#644055
0Z
#644109
0A
#644113
1x
#644130
0X
0(!
#644136
1q
#644159
0^
#644192
1/!
#644217
1h
#644356
0g
#644358
11!
#644366
0D
#644370
1{
#644545
0S
#644602
1]
#644658
1L
#644664
0N
#644751
0h
#644810
0{
1t
#644832
00!
#645129
1_
#645225
01!
#645252
0p
#645261
0E
#645328
1N
#645365
0i
#645645
0q
#645894
0G
0H
#645965
0x
#646029
1i
#646298
0e
#646299
0`
0.!
#646319
0t
#646323
0@
#646693
0/!
#647028
0]
#647498
0K
#647555
0_
#648167
0L
#648697
1~
#648701
1#!
#648709
12!
1$!
#648710
1&!
#648837
0N
#649538
0i
#650790
14
#651768
0,
1/
#651778
1.
#651998
08
#652015
12
#652206
0~
#652210
0#!
#652218
02!
0$!
#652219
0&!
#654299
04
#655277
1,
0/
#655287
0.
#655507
18
#655524
02
#680000
b1 #
09
#680974
1F!
#684017
1Q
1R
#684159
1^
#684545
1S
0R
#685073
0S
#685252
1p
#685645
1q
#685780
0p
#686173
0q
#686319
1t
#686847
0t
#720000
b11 #
b10 #
19
#720974
1E!
0F!
#724017
0Q
1R
#724053
0^
#724055
1Z
#724194
1B
#724545
1S
0R
#725073
0S
#760000
b11 #
09
#760974
1F!
#764017
1Q
1R
#764287
1j
#764545
1S
0R
#764694
1F
#764697
14!
#765073
0S
#765236
1m
#765412
1l
#766096
1o
#766100
1n
#766524
0m
1'!
#766766
1p
#766796
1X
#767159
1q
#767201
1W
#767384
0o
#767388
0n
#767498
10!
#767833
1t
#767891
11!
#767904
0X
#768054
0p
#768447
0q
#768606
00!
#768999
01!
#769121
0t
#800000
b111 #
b101 #
b100 #
19
#800974
1D!
0E!
0F!
#804017
0Q
1R
#804050
0W
#804055
0Z
#804103
1X
#804141
0j
#804194
0B
#804355
1V
#804545
1S
0R
#804548
0F
#804551
04!
#804753
0X
#804805
10!
#805073
0S
#805089
0'!
#805090
1m
#805227
0l
#805455
00!
#805623
1(!
#806339
0m
#806611
0(!
#840000
b101 #
09
#840974
1F!
#844017
1Q
1R
#844159
1^
#844249
1g
#844510
1A
#844545
1S
0R
#845073
0S
#880000
b111 #
b110 #
19
#880974
1E!
0F!
#883994
1L
#884017
0Q
1R
#884055
1Z
1E
#884128
1p
#884135
0V
#884158
1v
#884159
0^
#884249
0g
#884510
0A
#884545
1S
0R
#884602
1@
#885073
0S
#920000
b111 #
09
#920974
1F!
#924017
1Q
1R
#924158
0v
#924159
1^
#924249
1g
#924510
1A
#924545
1S
0R
#925073
0S
#960000
b1111 #
b1011 #
b1001 #
b1000 #
19
#960974
1C!
0D!
0E!
0F!
#963979
1N
#963994
0L
#964017
0Q
1R
#964109
0A
#964111
0E
#964113
1x
#964131
0p
#964136
1q
#964217
1h
#964249
0g
#964370
1{
#964492
0@
#964498
0^
#964524
0q
#964545
1S
0R
#964644
0h
#964664
0N
#964763
1|
#964810
0{
#964815
0x
#965073
0S
#965203
0|
#965252
1p
#965645
1q
#965780
0p
#966173
0q
